<svg width="41" height="40" viewBox="0 0 41 40" fill="none" xmlns="http://www.w3.org/2000/svg">
<path d="M1.03638 11.5C1.03638 10.1739 1.56316 8.90215 2.50084 7.96447C3.43852 7.02678 4.71029 6.5 6.03638 6.5H35.0364C36.3625 6.5 37.6342 7.02678 38.5719 7.96447C39.5096 8.90215 40.0364 10.1739 40.0364 11.5V14.5H1.03638V11.5ZM1.03638 18.5H40.0364V28.5C40.0364 29.8261 39.5096 31.0979 38.5719 32.0355C37.6342 32.9732 36.3625 33.5 35.0364 33.5H6.03638C4.71029 33.5 3.43852 32.9732 2.50084 32.0355C1.56316 31.0979 1.03638 29.8261 1.03638 28.5V18.5ZM28.0364 24.5C27.5059 24.5 26.9972 24.7107 26.6222 25.0858C26.2471 25.4609 26.0364 25.9696 26.0364 26.5C26.0364 27.0304 26.2471 27.5391 26.6222 27.9142C26.9972 28.2893 27.5059 28.5 28.0364 28.5H33.0364C33.5668 28.5 34.0755 28.2893 34.4506 27.9142C34.8257 27.5391 35.0364 27.0304 35.0364 26.5C35.0364 25.9696 34.8257 25.4609 34.4506 25.0858C34.0755 24.7107 33.5668 24.5 33.0364 24.5H28.0364Z" fill="white" stroke="white"/>
</svg>
