<svg width="24" height="24" viewBox="0 0 24 24" fill="none" xmlns="http://www.w3.org/2000/svg">
<path d="M19 3H5C3.89543 3 3 3.89543 3 5V19C3 20.1046 3.89543 21 5 21H19C20.1046 21 21 20.1046 21 19V5C21 3.89543 20.1046 3 19 3Z" stroke="#89C4CE" stroke-width="2.5" stroke-linecap="round" stroke-linejoin="round"/>
<path d="M8.5 9.99998C9.32843 9.99998 10 9.32841 10 8.49998C10 7.67156 9.32843 6.99998 8.5 6.99998C7.67157 6.99998 7 7.67156 7 8.49998C7 9.32841 7.67157 9.99998 8.5 9.99998Z" stroke="#89C4CE" stroke-width="2.5" stroke-linecap="round" stroke-linejoin="round"/>
<path d="M21 15L16 9.99998L5 21" stroke="#89C4CE" stroke-width="2.5" stroke-linecap="round" stroke-linejoin="round"/>
</svg>
