<svg xmlns="http://www.w3.org/2000/svg" width="16" height="16" viewBox="0 0 16 16">
    <path fill="none" fill-rule="nonzero" stroke="#EE3124" stroke-linecap="round" stroke-linejoin="round" stroke-width="1.5" d="M3 8.03l2.919 3.19L12.23 5"/>
</svg>
