<svg width="23" height="16" viewBox="0 0 23 16" fill="none" xmlns="http://www.w3.org/2000/svg">
<path fill-rule="evenodd" clip-rule="evenodd" d="M0 8C1.93564 3.29092 6.35626 0 11.5 0C16.6437 0 21.0644 3.29093 23 8C21.0644 12.7091 16.6437 16 11.5 16C6.35626 16 1.93564 12.7091 0 8ZM16.6111 8C16.6111 10.9455 14.3228 13.3333 11.5 13.3333C8.67721 13.3333 6.38889 10.9455 6.38889 8C6.38889 5.05448 8.67721 2.66667 11.5 2.66667C12.3164 2.66667 13.0881 2.86639 13.7726 3.22157C13.1675 3.70924 12.7778 4.4738 12.7778 5.33333C12.7778 6.80609 13.9219 8 15.3333 8C15.7943 8 16.2268 7.87262 16.6003 7.64975C16.6075 7.76553 16.6111 7.88232 16.6111 8Z" fill="white"/>
<path d="M14.0556 8C14.0556 9.47276 12.9114 10.6667 11.5 10.6667C10.0886 10.6667 8.94444 9.47276 8.94444 8C8.94444 6.52724 10.0886 5.33333 11.5 5.33333C12.9114 5.33333 14.0556 6.52724 14.0556 8Z" fill="white"/>
</svg>
