<svg width="23" height="23" viewBox="0 0 23 23" fill="none" xmlns="http://www.w3.org/2000/svg">
<g clip-path="url(#clip0_3775_403154)">
<path d="M6.67812 13.5408L6.65258 13.528L6.62549 13.519C5.28774 13.0731 3.7268 13.4036 2.71433 14.416C1.25742 15.8729 1.25742 18.2273 2.71433 19.6842C2.95742 19.9273 2.95742 20.2729 2.71433 20.516L2.6862 20.5442L2.66413 20.5773C2.54776 20.7518 2.38139 20.7984 2.29844 20.7984C2.19532 20.7984 2.12735 20.7816 2.07412 20.758C2.01914 20.7335 1.95882 20.6923 1.88254 20.616C-0.06055 18.6729 -0.06055 15.5273 1.88254 13.5842C3.27653 12.1903 5.30457 11.7392 7.04137 12.47C7.71821 12.7601 8.36562 13.1355 8.81433 13.5842C9.05742 13.8273 9.05742 14.1729 8.81433 14.416C8.57124 14.6591 8.22563 14.6591 7.98254 14.416C7.63572 14.0692 7.08861 13.746 6.67812 13.5408Z" fill="#EBF6F8" stroke="#EBF6F8" stroke-width="0.803571"/>
<path d="M8.78978 1.85735L8.80144 1.87135L8.81433 1.88424C9.05742 2.12733 9.05742 2.47293 8.81433 2.71603C8.57694 2.95342 8.24179 2.95899 7.99982 2.73274C7.63168 2.25659 7.1494 2.02778 6.64766 1.82708L6.63669 1.8227L6.62549 1.81897C5.28774 1.37305 3.72679 1.70356 2.71433 2.71603C1.25742 4.17294 1.25742 6.52733 2.71433 7.98424C2.95742 8.22733 2.95742 8.57294 2.71433 8.81603C2.66004 8.87032 2.58414 8.91811 2.49922 8.95208C2.41255 8.98675 2.33834 8.99835 2.29844 8.99835C2.19532 8.99835 2.12735 8.98164 2.07412 8.95798C2.01914 8.93354 1.95882 8.89231 1.88254 8.81603C-0.0605499 6.87294 -0.0605499 3.72733 1.88254 1.78424C3.27653 0.390251 5.30457 -0.0607595 7.04137 0.669948C7.71769 0.959918 8.3495 1.32901 8.78978 1.85735Z" fill="#EBF6F8" stroke="#EBF6F8" stroke-width="0.803571"/>
<path d="M21.3992 12.2C20.7992 12.2 20.3992 11.7 20.3992 11.2V5.60005C20.3992 3.60005 18.7992 2.00005 16.7992 2.00005C14.7992 2.00005 13.1992 3.60005 13.1992 5.60005V11.2C13.1992 11.8 12.6992 12.2 12.1992 12.2C11.6992 12.2 11.1992 11.7 11.1992 11.2V5.60005C11.1992 2.50005 13.6992 4.57764e-05 16.7992 4.57764e-05C19.8992 4.57764e-05 22.3992 2.50005 22.3992 5.60005V11.2C22.3992 11.8 21.9992 12.2 21.3992 12.2Z" fill="#EBF6F8"/>
<path d="M5.29922 22.4C3.89922 22.4 2.49922 21.8 1.49922 20.8C1.09922 20.4 1.09922 19.8 1.49922 19.4L7.59922 13.3C7.99922 12.9 8.59922 12.9 8.99922 13.3C9.99922 14.3 10.5992 15.7 10.5992 17.1C10.5992 18.5 9.99922 19.9 8.99922 20.9C8.09922 21.9 6.79922 22.4 5.29922 22.4ZM3.79922 20.1C4.99922 20.8 6.69922 20.5 7.69922 19.5C8.29922 18.9 8.69922 18 8.69922 17.1C8.69922 16.5 8.59922 16 8.29922 15.5L3.79922 20.1Z" fill="#EBF6F8"/>
<path d="M5.30078 10.7C3.90078 10.7 2.60078 10.2 1.50078 9.10003C1.40078 8.90003 1.30078 8.70003 1.30078 8.40003C1.30078 8.10003 1.40078 7.90003 1.60078 7.70003L7.70078 1.60003C8.10078 1.20003 8.70078 1.20003 9.10078 1.60003C11.2008 3.70003 11.2008 7.10003 9.10078 9.20003C8.10078 10.2 6.70078 10.7 5.30078 10.7ZM3.80078 8.30003C5.10078 9.00003 6.70078 8.80003 7.70078 7.70003C8.80078 6.70003 9.00078 5.10003 8.30078 3.80003L3.80078 8.30003Z" fill="#EBF6F8"/>
<path d="M16.7992 22.4C13.6992 22.4 11.1992 19.9 11.1992 16.8V11.2C11.1992 10.6 11.5992 10.2 12.1992 10.2H21.3992C21.9992 10.2 22.3992 10.6 22.3992 11.2V16.8C22.3992 17.7 22.1992 18.5 21.7992 19.3C21.5992 19.8 20.9992 20 20.4992 19.8C19.9992 19.6 19.7992 19 19.9992 18.5C20.1992 18 20.3992 17.5 20.3992 16.9V12.3H13.1992V16.9C13.1992 18.9 14.7992 20.5 16.7992 20.5C17.4992 20.5 18.1992 20.3 18.7992 19.9C19.2992 19.6 19.8992 19.7 20.1992 20.2C20.4992 20.7 20.3992 21.3 19.8992 21.6C18.9992 22.1 17.8992 22.4 16.7992 22.4Z" fill="#EBF6F8"/>
<path d="M12.5211 3.7735C12.6295 2.52774 13.6723 1.57162 14.9228 1.57162H18.3102C19.5211 1.57162 20.5441 2.46984 20.7007 3.67054L21.3575 8.70625C21.5457 10.1492 20.4222 11.4288 18.967 11.4288H14.4849C13.0711 11.4288 11.9608 10.2177 12.0833 8.80921L12.5211 3.7735Z" fill="#EBF6F8"/>
<path d="M2.42913 13.5716H7.57199L6.28627 17.4288L0.714844 19.1431L2.42913 13.5716Z" fill="#EBF6F8"/>
<path d="M2.43025 1.57162H7.5731L6.28739 5.42877L1.14453 7.57162L2.43025 1.57162Z" fill="#EBF6F8"/>
</g>
<defs>
<clipPath id="clip0_3775_403154">
<rect width="22.4" height="22.4" fill="white"/>
</clipPath>
</defs>
</svg>
