<svg width="24" height="24" viewBox="0 0 24 24" fill="none" xmlns="http://www.w3.org/2000/svg">
<path d="M14 2.00002H6C5.46957 2.00002 4.96086 2.21073 4.58579 2.5858C4.21071 2.96087 4 3.46958 4 4.00002V20C4 20.5304 4.21071 21.0392 4.58579 21.4142C4.96086 21.7893 5.46957 22 6 22H18C18.5304 22 19.0391 21.7893 19.4142 21.4142C19.7893 21.0392 20 20.5304 20 20V8.00002L14 2.00002Z" stroke="#89C4CE" stroke-width="2.5" stroke-linecap="round" stroke-linejoin="round"/>
<path d="M14 2.00002V8.00002H20" stroke="#89C4CE" stroke-width="2.5" stroke-linecap="round" stroke-linejoin="round"/>
<path d="M16 13H8" stroke="#89C4CE" stroke-width="2.5" stroke-linecap="round" stroke-linejoin="round"/>
<path d="M16 17H8" stroke="#89C4CE" stroke-width="2.5" stroke-linecap="round" stroke-linejoin="round"/>
<path d="M10 9H9H8" stroke="#89C4CE" stroke-width="2.5" stroke-linecap="round" stroke-linejoin="round"/>
</svg>
