<svg width="20" height="26" viewBox="0 0 20 26" fill="none" xmlns="http://www.w3.org/2000/svg">
<path fill-rule="evenodd" clip-rule="evenodd" d="M15.4393 1.74725C12.5165 1.17395 9.59248 0.606207 6.66544 0.0551069C6.31712 -0.0104839 5.93231 -0.0243178 5.58923 0.0510015C4.53651 0.282204 3.96831 0.995421 3.76751 2.03393C2.85785 6.73873 1.94695 11.4432 1.03603 16.1478L0.0690374 21.1422L0.0647613 21.1643C0.0520024 21.23 0.039215 21.2959 0.02944 21.3621C-0.165205 22.6788 0.620898 23.7914 1.92648 24.0445C4.91448 24.6237 7.90262 25.2026 10.8912 25.7798C12.219 26.0363 13.3783 25.2493 13.6359 23.9193C13.7536 23.3115 13.8714 22.7038 13.9891 22.096L13.1036 20.4352L12.8716 21.6339L12.8157 21.9222L5.91765 20.5868L1.58409 19.7478L4.65515 3.88484C4.68741 3.88926 4.71793 3.89301 4.74723 3.89661L4.74726 3.89662C4.80606 3.90384 4.85996 3.91047 4.91311 3.92071C5.75101 4.08277 6.58887 4.24504 7.42673 4.4073C10.1438 4.93352 12.8609 5.45973 15.5793 5.97888C15.8393 6.02851 15.8808 6.11858 15.8329 6.36407C15.3409 8.888 14.8509 11.4123 14.3617 13.9368L15.2472 15.5975L15.5149 14.2145L15.8617 12.4233C16.3707 9.79455 16.8796 7.16579 17.3878 4.53687C17.4124 4.40926 17.4372 4.28013 17.4432 4.15085C17.4987 2.956 16.7094 1.99631 15.4393 1.74725ZM9.60958 2.67722C10.3071 2.79221 11.002 2.92674 11.692 3.08065C11.7552 3.09473 11.8032 3.17606 11.8512 3.25733C11.8734 3.29488 11.8956 3.33242 11.9192 3.3633C11.8863 3.37859 11.8528 3.39897 11.8192 3.41935C11.7459 3.46382 11.6726 3.50832 11.606 3.50003C11.3515 3.46822 11.0995 3.41654 10.8476 3.36486L10.8475 3.36485C10.7528 3.34541 10.658 3.32598 10.5631 3.30759C10.4674 3.28901 10.3713 3.27152 10.2752 3.25402L10.2752 3.25402C10.0231 3.2081 9.77101 3.16217 9.52408 3.09669C9.46027 3.07974 9.41041 3.01017 9.36057 2.94062C9.33774 2.90877 9.31491 2.87692 9.29075 2.85013C9.32461 2.83076 9.35955 2.80476 9.39449 2.77877C9.46988 2.72268 9.54523 2.66663 9.60958 2.67722ZM8.76275 2.5205C8.81648 2.52446 8.86622 2.58232 8.93309 2.66012C8.96772 2.7004 9.00694 2.74603 9.0537 2.79229C8.99358 2.81805 8.9407 2.84597 8.894 2.87062C8.80389 2.91818 8.73682 2.95358 8.68531 2.93791C8.62789 2.92041 8.5871 2.84853 8.54631 2.77664C8.52845 2.74517 8.5106 2.71371 8.49135 2.6868C8.51891 2.66844 8.54682 2.64532 8.57474 2.6222C8.63883 2.56913 8.70293 2.51606 8.76275 2.5205ZM6.60692 23.9905C7.23853 23.9905 7.75054 23.4784 7.75054 22.8468C7.75054 22.2152 7.23853 21.7032 6.60692 21.7032C5.97532 21.7032 5.4633 22.2152 5.4633 22.8468C5.4633 23.4784 5.97532 23.9905 6.60692 23.9905Z" fill="white"/>
<path fill-rule="evenodd" clip-rule="evenodd" d="M13.0453 12.5798L10.3718 11.0262L10.2058 14.0938L13.0453 12.5798ZM10.2053 14.0942L13.0449 12.5802L18.2692 22.3787L18.2455 22.3913C18.306 22.4673 18.3605 22.5498 18.4079 22.6387C18.826 23.4228 18.5292 24.3974 17.7451 24.8154C16.961 25.2335 15.9864 24.9368 15.5683 24.1526C15.521 24.0638 15.4828 23.9725 15.4534 23.8799L15.4296 23.8926L10.2053 14.0942Z" fill="white"/>
</svg>
