<svg width="24" height="24" viewBox="0 0 24 24" fill="none" xmlns="http://www.w3.org/2000/svg">
<path d="M7.13048 19.0453L7.01956 18.8579L6.80678 18.8115L4.05678 18.2115L4.05679 18.2114L4.04825 18.2097C3.92341 18.1847 3.833 18.127 3.75618 18.0201L3.75574 18.0195C3.67907 17.9132 3.65467 17.8121 3.67081 17.691L3.67198 17.6822L3.67284 17.6734L3.94784 14.8484L3.96873 14.6338L3.82703 14.4713L1.95203 12.3213L1.95211 12.3213L1.94517 12.3136C1.863 12.2232 1.8252 12.1268 1.8252 12C1.8252 11.8731 1.863 11.7767 1.94517 11.6863L1.94524 11.6864L1.95203 11.6786L3.82703 9.52859L3.96873 9.3661L3.94784 9.15152L3.67284 6.32652L3.67198 6.31768L3.67081 6.30888C3.65467 6.18786 3.67907 6.08674 3.75574 5.98042L3.75618 5.97981C3.833 5.87295 3.9234 5.81522 4.04825 5.79025L4.04827 5.79033L4.05678 5.78847L6.80678 5.18847L7.01956 5.14204L7.13048 4.95462L8.57799 2.50884C8.6489 2.39498 8.73153 2.33602 8.83756 2.30572C8.96449 2.26946 9.08747 2.27166 9.22014 2.31669L11.8054 3.41045L12.0002 3.49287L12.195 3.41045L14.7803 2.31669C14.9129 2.27166 15.0359 2.26946 15.1628 2.30572C15.2689 2.33602 15.3515 2.39497 15.4224 2.50883L16.8699 4.95462L16.9808 5.14204L17.1936 5.18847L19.9436 5.78847L19.9436 5.78854L19.9521 5.79025C20.077 5.81522 20.1674 5.87295 20.2442 5.97981L20.2446 5.98042C20.3213 6.08674 20.3457 6.18786 20.3296 6.30888L20.3284 6.31768L20.3275 6.32652L20.0525 9.15152L20.0317 9.3661L20.1734 9.52859L22.0484 11.6786L22.0483 11.6787L22.0552 11.6863C22.1374 11.7767 22.1752 11.8731 22.1752 12C22.1752 12.1268 22.1374 12.2232 22.0552 12.3136L22.0551 12.3136L22.0484 12.3213L20.1734 14.4713L20.0317 14.6338L20.0525 14.8484L20.3275 17.6734L20.3284 17.6822L20.3296 17.691C20.3457 17.8121 20.3213 17.9132 20.2446 18.0195L20.2442 18.0201C20.1674 18.127 20.077 18.1847 19.9521 18.2097L19.9521 18.2096L19.9436 18.2115L17.1936 18.8115L16.9808 18.8579L16.8699 19.0453L15.4224 21.4911C15.3515 21.6049 15.2689 21.6639 15.1628 21.6942C15.0359 21.7305 14.9129 21.7283 14.7802 21.6832L12.195 20.5895L12.0002 20.5071L11.8054 20.5895L9.22015 21.6832C9.08747 21.7283 8.9645 21.7305 8.83756 21.6942C8.73152 21.6639 8.64889 21.6049 8.57798 21.4911L7.13048 19.0453ZM9.85066 10.9183L9.84446 10.9123L9.83806 10.9064C9.54077 10.6339 9.17652 10.5004 8.77364 10.5122L8.77246 10.5122C8.37875 10.5246 8.02588 10.6672 7.74664 10.9464C7.46038 11.2327 7.3252 11.5976 7.3252 12C7.3252 12.4024 7.46038 12.7673 7.74664 13.0535L9.89664 15.2035C10.1829 15.4898 10.5478 15.625 10.9502 15.625C11.3526 15.625 11.7175 15.4898 12.0037 15.2035L16.2537 10.9535C16.5447 10.6626 16.7002 10.2989 16.7002 9.88696C16.7002 9.47533 16.5444 9.11205 16.2537 8.82141C15.9631 8.53076 15.5998 8.37496 15.1882 8.37496C14.7763 8.37496 14.4125 8.5305 14.1216 8.82141L10.9471 11.9959L9.85066 10.9183Z" fill="#0093AD" stroke="#0093AD"/>
</svg>
