<svg width="24" height="24" viewBox="0 0 24 24" fill="none" xmlns="http://www.w3.org/2000/svg">
<path d="M7.13048 19.046L7.01956 18.8586L6.80678 18.8122L4.05678 18.2122L4.05679 18.2121L4.04825 18.2104C3.92341 18.1854 3.833 18.1277 3.75618 18.0208L3.75574 18.0202C3.67907 17.9139 3.65467 17.8128 3.67081 17.6918L3.67198 17.683L3.67284 17.6741L3.94784 14.8491L3.96873 14.6346L3.82703 14.4721L1.95203 12.3221L1.95211 12.322L1.94517 12.3144C1.863 12.224 1.8252 12.1276 1.8252 12.0007C1.8252 11.8738 1.863 11.7774 1.94517 11.687L1.94524 11.6871L1.95203 11.6793L3.82703 9.52933L3.96873 9.36684L3.94784 9.15225L3.67284 6.32725L3.67198 6.31841L3.67081 6.30961C3.65467 6.18859 3.67907 6.08747 3.75574 5.98116L3.75618 5.98054C3.833 5.87368 3.9234 5.81596 4.04825 5.79099L4.04827 5.79106L4.05678 5.7892L6.80678 5.1892L7.01956 5.14278L7.13048 4.95535L8.57799 2.50957C8.6489 2.39571 8.73153 2.33675 8.83756 2.30646C8.96449 2.27019 9.08747 2.27239 9.22014 2.31743L11.8054 3.41118L12.0002 3.4936L12.195 3.41118L14.7803 2.31743C14.9129 2.27239 15.0359 2.27019 15.1628 2.30646C15.2689 2.33675 15.3515 2.39571 15.4224 2.50956L16.8699 4.95535L16.9808 5.14278L17.1936 5.1892L19.9436 5.7892L19.9436 5.78928L19.9521 5.79099C20.077 5.81596 20.1674 5.87368 20.2442 5.98054L20.2446 5.98115C20.3213 6.08747 20.3457 6.18859 20.3296 6.30961L20.3284 6.31841L20.3275 6.32725L20.0525 9.15225L20.0317 9.36684L20.1734 9.52933L22.0484 11.6793L22.0483 11.6794L22.0552 11.687C22.1374 11.7774 22.1752 11.8738 22.1752 12.0007C22.1752 12.1276 22.1374 12.224 22.0552 12.3144L22.0551 12.3143L22.0484 12.3221L20.1734 14.4721L20.0317 14.6346L20.0525 14.8491L20.3275 17.6741L20.3284 17.683L20.3296 17.6918C20.3457 17.8128 20.3213 17.9139 20.2446 18.0202L20.2442 18.0208C20.1674 18.1277 20.077 18.1854 19.9521 18.2104L19.9521 18.2103L19.9436 18.2122L17.1936 18.8122L16.9808 18.8586L16.8699 19.046L15.4224 21.4918C15.3515 21.6057 15.2689 21.6646 15.1628 21.6949C15.0359 21.7312 14.9129 21.729 14.7802 21.684L12.195 20.5902L12.0002 20.5078L11.8054 20.5902L9.22015 21.684C9.08747 21.729 8.9645 21.7312 8.83756 21.6949C8.73152 21.6646 8.64889 21.6057 8.57798 21.4918L7.13048 19.046ZM10.5997 13.0573L10.9533 13.4047L11.3037 13.0542L14.8287 9.52925C14.9378 9.42015 15.0495 9.37569 15.1882 9.37569C15.3259 9.37569 15.4373 9.41989 15.5466 9.52925C15.656 9.6386 15.7002 9.74999 15.7002 9.88769C15.7002 10.0264 15.6557 10.138 15.5466 10.2471L11.2966 14.4971C11.2162 14.5775 11.1145 14.6257 10.9502 14.6257C10.7859 14.6257 10.6842 14.5775 10.6037 14.4971L8.45375 12.3471C8.37335 12.2667 8.3252 12.165 8.3252 12.0007C8.3252 11.8364 8.37335 11.7347 8.45375 11.6542C8.54103 11.567 8.64663 11.5175 8.80316 11.5125C8.94679 11.5084 9.05574 11.5487 9.1568 11.6393L10.5997 13.0573ZM9.02224 20.2093L9.24777 20.5826L9.64824 20.4098L12.0021 19.3944L14.4054 20.4112L14.8105 20.5826L15.0321 20.2026L16.324 17.9879L18.8652 17.3873L19.2867 17.2877L19.2482 16.8562L19.0173 14.2701L20.7254 12.3312L21.0131 12.0046L20.7292 11.6746L19.017 9.68472L19.2482 7.09516L19.2874 6.65614L18.8568 6.56219L16.3169 6.00804L14.9782 3.79214L14.7526 3.41884L14.3521 3.59159L11.9983 4.60698L9.59502 3.59021L9.18993 3.41883L8.96831 3.79876L7.67899 6.00901L5.14361 6.56219L4.71298 6.65614L4.75218 7.09516L4.98339 9.68472L3.27119 11.6746L2.98725 12.0046L3.27502 12.3312L4.98339 14.2704L4.75211 16.907L4.71365 17.3454L5.14361 17.4392L7.68346 17.9934L9.02224 20.2093Z" fill="black" stroke="#8E8E8E"/>
</svg>
